

Microchip MPLAB XC8 Assembler V2.10 build 88905656 
                                                                                               Wed Feb 12 21:21:05 2020

Microchip MPLAB XC8 C Compiler v2.10 (Free license) build 20190730164152 Og1 
     1                           	processor	18F45K22
     2                           	fnconf	rparam,??,?,0
     3                           	opt	pw 120
     4                           	opt	flic
     5                           	psect	cinit,global,reloc=2,class=CODE,delta=1
     6                           	psect	cstackCOMRAM,global,class=COMRAM,space=1,delta=1,noexec
     7                           	psect	text0,global,reloc=2,class=CODE,delta=1
     8                           	psect	text1,global,reloc=2,class=CODE,delta=1
     9                           	psect	intsave_regs,global,class=BIGRAM,space=1,delta=1,noexec
    10                           	psect	rparam,global,class=COMRAM,space=1,delta=1,noexec
    11  0000                     
    12                           ; Version 2.10
    13                           ; Generated 31/07/2019 GMT
    14                           ; 
    15                           ; Copyright © 2019, Microchip Technology Inc. and its subsidiaries ("Microchip")
    16                           ; All rights reserved.
    17                           ; 
    18                           ; This software is developed by Microchip Technology Inc. and its subsidiaries ("Microch
      +                          ip").
    19                           ; 
    20                           ; Redistribution and use in source and binary forms, with or without modification, are
    21                           ; permitted provided that the following conditions are met:
    22                           ; 
    23                           ;     1. Redistributions of source code must retain the above copyright notice, this lis
      +                          t of
    24                           ;        conditions and the following disclaimer.
    25                           ; 
    26                           ;     2. Redistributions in binary form must reproduce the above copyright notice, this 
      +                          list
    27                           ;        of conditions and the following disclaimer in the documentation and/or other
    28                           ;        materials provided with the distribution.
    29                           ; 
    30                           ;     3. Microchip's name may not be used to endorse or promote products derived from th
      +                          is
    31                           ;        software without specific prior written permission.
    32                           ; 
    33                           ; THIS SOFTWARE IS PROVIDED BY MICROCHIP "AS IS" AND ANY EXPRESS OR IMPLIED WARRANTIES,
    34                           ; INCLUDING, BUT NOT LIMITED TO, THE IMPLIED WARRANTIES OF MERCHANTABILITY AND FITNESS F
      +                          OR
    35                           ; PURPOSE ARE DISCLAIMED.  IN NO EVENT SHALL MICROCHIP BE LIABLE FOR ANY DIRECT, INDIREC
      +                          T,
    36                           ; INCIDENTAL, SPECIAL, EXEMPLARY, OR CONSEQUENTIAL DAMAGES (INCLUDING BUT NOT LIMITED TO
    37                           ; PROCUREMENT OF SUBSTITUTE GOODS OR SERVICES; LOSS OF USE, DATA OR PROFITS; OR BUSINESS
    38                           ; INTERRUPTION) HOWSOEVER CAUSED AND ON ANY THEORY OF LIABILITY, WHETHER IN CONTRACT, ST
      +                          RICT
    39                           ; LIABILITY, OR TORT (INCLUDING NEGLIGENCE OR OTHERWISE) ARISING IN ANY WAY OUT OF THE U
      +                          SE OF
    40                           ; THIS SOFTWARE, EVEN IF ADVISED OF THE POSSIBILITY OF SUCH DAMAGE.
    41                           ; 
    42                           ; 
    43                           ; Code-generator required, PIC18F45K22 Definitions
    44                           ; 
    45                           ; SFR Addresses
    46  0000                     _ANSELBbits	set	3897
    47  0000                     _TRISDbits	set	3989
    48  0000                     _TRISBbits	set	3987
    49  0000                     _LATD	set	3980
    50  0000                     _LATB	set	3978
    51  0000                     _OSCTUNEbits	set	3995
    52  0000                     _OSCCONbits	set	4051
    53  0000                     _PORTBbits	set	3969
    54  0000                     _LATDbits	set	3980
    55                           
    56                           ; #config settings
    57  0000                     
    58                           	psect	cinit
    59  007FB6                     __pcinit:
    60                           	opt callstack 0
    61  007FB6                     start_initialization:
    62                           	opt callstack 0
    63  007FB6                     __initialization:
    64                           	opt callstack 0
    65  007FB6                     end_of_initialization:
    66                           	opt callstack 0
    67  007FB6                     __end_of__initialization:
    68                           	opt callstack 0
    69  007FB6  0100               	movlb	0
    70  007FB8  EFEA  F03F         	goto	_main	;jump to C main() function
    71                           
    72                           	psect	cstackCOMRAM
    73  000001                     __pcstackCOMRAM:
    74                           	opt callstack 0
    75  000001                     ??_main:
    76                           
    77                           ; 1 bytes @ 0x0
    78  000001                     	ds	1
    79                           
    80 ;;
    81 ;;Main: autosize = 0, tempsize = 1, incstack = 0, save=0
    82 ;;
    83 ;; *************** function _main *****************
    84 ;; Defined at:
    85 ;;		line 66 in file "ProgrammedIO_02.c"
    86 ;; Parameters:    Size  Location     Type
    87 ;;		None
    88 ;; Auto vars:     Size  Location     Type
    89 ;;		None
    90 ;; Return value:  Size  Location     Type
    91 ;;                  1    wreg      void 
    92 ;; Registers used:
    93 ;;		wreg, status,2, status,0, cstack
    94 ;; Tracked objects:
    95 ;;		On entry : 0/0
    96 ;;		On exit  : 0/0
    97 ;;		Unchanged: 0/0
    98 ;; Data sizes:     COMRAM   BANK0   BANK1   BANK2   BANK3   BANK4   BANK5
    99 ;;      Params:         0       0       0       0       0       0       0
   100 ;;      Locals:         0       0       0       0       0       0       0
   101 ;;      Temps:          1       0       0       0       0       0       0
   102 ;;      Totals:         1       0       0       0       0       0       0
   103 ;;Total ram usage:        1 bytes
   104 ;; Hardware stack levels required when called:    1
   105 ;; This function calls:
   106 ;;		_SysInitialize
   107 ;; This function is called by:
   108 ;;		Startup code after reset
   109 ;; This function uses a non-reentrant model
   110 ;;
   111                           
   112                           	psect	text0
   113  007FD4                     __ptext0:
   114                           	opt callstack 0
   115  007FD4                     _main:
   116                           	opt callstack 30
   117  007FD4                     
   118                           ;ProgrammedIO_02.c: 69: SysInitialize();
   119  007FD4  ECDE  F03F         	call	_SysInitialize	;wreg free
   120  007FD8                     l793:
   121                           
   122                           ;ProgrammedIO_02.c: 73: {;ProgrammedIO_02.c: 76: LATDbits.LATD0 = ~PORTBbits.RB0;
   123  007FD8  B081               	btfsc	129,0,c	;volatile
   124  007FDA  EFF1  F03F         	goto	u11
   125  007FDE  EFF4  F03F         	goto	u10
   126  007FE2                     u11:
   127  007FE2  0E01               	movlw	1
   128  007FE4  EFF5  F03F         	goto	u16
   129  007FE8                     u10:
   130  007FE8  0E00               	movlw	0
   131  007FEA                     u16:
   132  007FEA  0AFF               	xorlw	255
   133  007FEC  6E01               	movwf	??_main^0,c
   134  007FEE  508C               	movf	140,w,c	;volatile
   135  007FF0  1801               	xorwf	??_main^0,w,c
   136  007FF2  0BFE               	andlw	-2
   137  007FF4  1801               	xorwf	??_main^0,w,c
   138  007FF6  6E8C               	movwf	140,c	;volatile
   139  007FF8  EFEC  F03F         	goto	l793
   140  007FFC  EF00  F000         	goto	start
   141  008000                     __end_of_main:
   142                           	opt callstack 0
   143                           
   144 ;; *************** function _SysInitialize *****************
   145 ;; Defined at:
   146 ;;		line 90 in file "ProgrammedIO_02.c"
   147 ;; Parameters:    Size  Location     Type
   148 ;;		None
   149 ;; Auto vars:     Size  Location     Type
   150 ;;		None
   151 ;; Return value:  Size  Location     Type
   152 ;;                  1    wreg      void 
   153 ;; Registers used:
   154 ;;		wreg, status,2
   155 ;; Tracked objects:
   156 ;;		On entry : 0/0
   157 ;;		On exit  : 0/0
   158 ;;		Unchanged: 0/0
   159 ;; Data sizes:     COMRAM   BANK0   BANK1   BANK2   BANK3   BANK4   BANK5
   160 ;;      Params:         0       0       0       0       0       0       0
   161 ;;      Locals:         0       0       0       0       0       0       0
   162 ;;      Temps:          0       0       0       0       0       0       0
   163 ;;      Totals:         0       0       0       0       0       0       0
   164 ;;Total ram usage:        0 bytes
   165 ;; Hardware stack levels used:    1
   166 ;; This function calls:
   167 ;;		Nothing
   168 ;; This function is called by:
   169 ;;		_main
   170 ;; This function uses a non-reentrant model
   171 ;;
   172                           
   173                           	psect	text1
   174  007FBC                     __ptext1:
   175                           	opt callstack 0
   176  007FBC                     _SysInitialize:
   177                           	opt callstack 30
   178  007FBC                     
   179                           ;ProgrammedIO_02.c: 95: OSCCONbits.IRCF = 0b111;
   180  007FBC  0E70               	movlw	112
   181  007FBE  12D3               	iorwf	211,f,c	;volatile
   182  007FC0                     
   183                           ;ProgrammedIO_02.c: 98: OSCTUNEbits.PLLEN = 1;
   184  007FC0  8C9B               	bsf	155,6,c	;volatile
   185                           
   186                           ;ProgrammedIO_02.c: 103: LATB = 0;
   187  007FC2  0E00               	movlw	0
   188  007FC4  6E8A               	movwf	138,c	;volatile
   189                           
   190                           ;ProgrammedIO_02.c: 104: LATD = 0;
   191  007FC6  0E00               	movlw	0
   192  007FC8  6E8C               	movwf	140,c	;volatile
   193  007FCA                     
   194                           ;ProgrammedIO_02.c: 112: ANSELBbits.ANSB0 = 0;
   195  007FCA  010F               	movlb	15	; () banked
   196  007FCC  9139               	bcf	57,0,b	;volatile
   197  007FCE                     
   198                           ; BSR set to: 15
   199                           ;ProgrammedIO_02.c: 115: TRISBbits.TRISB0 = 1;
   200  007FCE  8093               	bsf	147,0,c	;volatile
   201  007FD0                     
   202                           ; BSR set to: 15
   203                           ;ProgrammedIO_02.c: 116: TRISDbits.TRISD0= 0;
   204  007FD0  9095               	bcf	149,0,c	;volatile
   205  007FD2                     
   206                           ; BSR set to: 15
   207  007FD2  0012               	return		;funcret
   208  007FD4                     __end_of_SysInitialize:
   209                           	opt callstack 0
   210  0000                     
   211                           	psect	rparam
   212  0000                     tosu	equ	0xFFF
   213                           tosh	equ	0xFFE
   214                           tosl	equ	0xFFD
   215                           stkptr	equ	0xFFC
   216                           pclatu	equ	0xFFB
   217                           pclath	equ	0xFFA
   218                           pcl	equ	0xFF9
   219                           tblptru	equ	0xFF8
   220                           tblptrh	equ	0xFF7
   221                           tblptrl	equ	0xFF6
   222                           tablat	equ	0xFF5
   223                           prodh	equ	0xFF4
   224                           prodl	equ	0xFF3
   225                           indf0	equ	0xFEF
   226                           postinc0	equ	0xFEE
   227                           postdec0	equ	0xFED
   228                           preinc0	equ	0xFEC
   229                           plusw0	equ	0xFEB
   230                           fsr0h	equ	0xFEA
   231                           fsr0l	equ	0xFE9
   232                           wreg	equ	0xFE8
   233                           indf1	equ	0xFE7
   234                           postinc1	equ	0xFE6
   235                           postdec1	equ	0xFE5
   236                           preinc1	equ	0xFE4
   237                           plusw1	equ	0xFE3
   238                           fsr1h	equ	0xFE2
   239                           fsr1l	equ	0xFE1
   240                           bsr	equ	0xFE0
   241                           indf2	equ	0xFDF
   242                           postinc2	equ	0xFDE
   243                           postdec2	equ	0xFDD
   244                           preinc2	equ	0xFDC
   245                           plusw2	equ	0xFDB
   246                           fsr2h	equ	0xFDA
   247                           fsr2l	equ	0xFD9
   248                           status	equ	0xFD8


Data Sizes:
    Strings     0
    Constant    0
    Data        0
    BSS         0
    Persistent  0
    Stack       0

Auto Spaces:
    Space          Size  Autos    Used
    COMRAM           95      1       1
    BANK0           160      0       0
    BANK1           256      0       0
    BANK2           256      0       0
    BANK3           256      0       0
    BANK4           256      0       0
    BANK5           256      0       0

Pointer List with Targets:

    None.

Critical Paths under _main in COMRAM

    None.

Critical Paths under _main in BANK0

    None.

Critical Paths under _main in BANK1

    None.

Critical Paths under _main in BANK2

    None.

Critical Paths under _main in BANK3

    None.

Critical Paths under _main in BANK4

    None.

Critical Paths under _main in BANK5

    None.

Call Graph Tables:

 ---------------------------------------------------------------------------------
 (Depth) Function   	        Calls       Base Space   Used Autos Params    Refs
 ---------------------------------------------------------------------------------
 (0) _main                                                 1     1      0       0
                                              0 COMRAM     1     1      0
                      _SysInitialize
 ---------------------------------------------------------------------------------
 (1) _SysInitialize                                        0     0      0       0
 ---------------------------------------------------------------------------------
 Estimated maximum stack depth 1
 ---------------------------------------------------------------------------------

 Call Graph Graphs:

 _main (ROOT)
   _SysInitialize

 Address spaces:
Name               Size   Autos  Total    Cost      Usage
BITCOMRAM           5F      0       0       0        0.0%
EEDATA             100      0       0       0        0.0%
NULL                 0      0       0       0        0.0%
CODE                 0      0       0       0        0.0%
COMRAM              5F      1       1       1        1.1%
STACK                0      0       0       2        0.0%
BITBANK0            A0      0       0       3        0.0%
BANK0               A0      0       0       4        0.0%
BITBANK1           100      0       0       5        0.0%
BANK1              100      0       0       6        0.0%
BITBANK2           100      0       0       7        0.0%
BANK2              100      0       0       8        0.0%
ABS                  0      0       0       9        0.0%
BITBANK3           100      0       0      10        0.0%
BANK3              100      0       0      11        0.0%
BITBANK4           100      0       0      12        0.0%
BANK4              100      0       0      13        0.0%
BITBANK5           100      0       0      14        0.0%
BANK5              100      0       0      15        0.0%
BIGRAM             5FF      0       0      16        0.0%
DATA                 0      0       0      17        0.0%
BITSFR_1             0      0       0     200        0.0%
SFR_1                0      0       0     200        0.0%
BITSFR               0      0       0     200        0.0%
SFR                  0      0       0     200        0.0%


Microchip Technology PIC18 Macro Assembler V2.10 build 88905656 
Symbol Table                                                                                   Wed Feb 12 21:21:05 2020

                     l31 7FD2                       u10 7FE8                       u11 7FE2  
                     u16 7FEA             __CFG_CP0$OFF 000000             __CFG_CP1$OFF 000000  
           __CFG_CP2$OFF 000000             __CFG_CP3$OFF 000000                      l781 7FC0  
                    l783 7FCA                      l791 7FD4                      l785 7FCE  
                    l793 7FD8                      l787 7FD0                      l779 7FBC  
           __CFG_CPB$OFF 000000             __CFG_CPD$OFF 000000             __CFG_LVP$OFF 000000  
                   _LATB 000F8A                     _LATD 000F8C                     _main 7FD4  
          __CFG_BORV$190 000000                     start 0000            __CFG_IESO$OFF 000000  
          _SysInitialize 7FBC             ___param_bank 000000                    ?_main 0001  
          __CFG_WRT0$OFF 000000            __CFG_WRT1$OFF 000000            __CFG_WRT2$OFF 000000  
          __CFG_WRT3$OFF 000000           __CFG_EBTR0$OFF 000000           __CFG_FCMEN$OFF 000000  
         __CFG_EBTR1$OFF 000000           __CFG_EBTR2$OFF 000000           __CFG_EBTR3$OFF 000000  
          __CFG_WRTB$OFF 000000            __CFG_WRTC$OFF 000000            __CFG_WRTD$OFF 000000  
         __CFG_EBTRB$OFF 000000       __CFG_MCLRE$EXTMCLR 000000           __CFG_HFOFST$ON 000000  
         ?_SysInitialize 0001          __initialization 7FB6             __end_of_main 8000  
                 ??_main 0001            __activetblptr 000000           __CFG_WDTEN$OFF 000000  
         __CFG_PWRTEN$ON 000000           __CFG_XINST$OFF 000000           __CFG_STVREN$ON 000000  
             __accesstop 0060  __end_of__initialization 7FB6          __CFG_PBADEN$OFF 000000  
        ??_SysInitialize 0001            ___rparam_used 000001           __pcstackCOMRAM 0001  
        __CFG_PLLCFG$OFF 000000       __CFG_CCP2MX$PORTC1 000000       __CFG_CCP3MX$PORTB5 000000  
                __Hparam 0000                  __Lparam 0000                  __pcinit 7FB6  
                __ramtop 0600                  __ptext0 7FD4                  __ptext1 7FBC  
   end_of_initialization 7FB6                _PORTBbits 000F81                _TRISBbits 000F93  
              _TRISDbits 000F95      start_initialization 7FB6    __end_of_SysInitialize 7FD4  
       __CFG_PRICLKEN$ON 000000                 _LATDbits 000F8C         __CFG_WDTPS$32768 000000  
               __Hrparam 0000                 __Lrparam 0000       __CFG_BOREN$SBORDIS 000000  
      __CFG_P2BMX$PORTD2 000000               _ANSELBbits 000F39            __size_of_main 002C  
            _OSCTUNEbits 000F9B               _OSCCONbits 000FD3        __CFG_T3CMX$PORTC0 000000  
 __size_of_SysInitialize 0018        __CFG_FOSC$INTIO67 000000  
