__size_of_floorf 0 0 ABS 0
___aodiv@counter 11 0 COMRAM 1
__CFG_XINST$OFF 0 0 ABS 0
___awdiv@counter 5 0 COMRAM 1
sprintf@f AC 0 BANK0 1
__size_of_Lcd_Cmd 0 0 ABS 0
___fldiv@rem D 0 COMRAM 1
__S0 30000E 0 ABS 0
__S1 150 0 ABS 0
__S2 0 0 ABS 0
__Hintentry 0 0 ABS 0
__Lintentry 0 0 ABS 0
__CFG_PLLCFG$OFF 0 0 ABS 0
_pad 2C38 0 CODE 0
vfpfcnvrt@ct 5A 0 COMRAM 1
__end_of___awdiv 2E68 0 CODE 0
_abs 30DA 0 CODE 0
___fladd@signs D 0 COMRAM 1
__end_of___fleq 2D5C 0 CODE 0
strncmp@l 8 0 COMRAM 1
vfpfcnvrt@c 5D 0 COMRAM 1
___flneg@f1 1 0 COMRAM 1
strncmp@n 5 0 COMRAM 1
abs@a 13 0 COMRAM 1
pad@i 18 0 COMRAM 1
efgtoa@ne 76 0 BANK0 1
pad@p 15 0 COMRAM 1
?_pad 11 0 COMRAM 1
pad@w 1A 0 COMRAM 1
_prec D4 0 BANK0 1
_dtoa 1CE6 0 CODE 0
_dbuf 100 0 BANK1 1
?_abs 13 0 COMRAM 1
_main 2D5C 0 CODE 0
_atoi 222C 0 CODE 0
___sp 0 0 STACK 2
?___fladd 1 0 COMRAM 1
start 0 0 CODE 0
_nout D0 0 BANK0 1
sprintf@s 9E 0 BANK0 1
strncmp@r A 0 COMRAM 1
___fltol@f1 1 0 COMRAM 1
?_isspace 1 0 COMRAM 1
Lcd_Chr_CP@data 3 0 COMRAM 1
__end_of_strcpy 2FD2 0 CODE 0
__size_of___fleq 0 0 ABS 0
__end_of___flmul 1752 0 CODE 0
__Hirdata 0 0 CODE 0
__Lirdata 0 0 CODE 0
efgtoa@fp 2E 0 COMRAM 1
__HRAM 0 0 ABS 0
__LRAM 1 0 ABS 0
__size_of_vfprintf 0 0 ABS 0
Lcd_Out@x 4 0 COMRAM 1
?___flneg 1 0 COMRAM 1
vfpfcnvrt@f 56 0 COMRAM 1
__CFG_WDTPS$32768 0 0 ABS 0
__Hconfig 30000E 0 CONFIG 0
__Lconfig 300000 0 CONFIG 0
Lcd_Out@y 9 0 COMRAM 1
__end_of_Lcd_Init 2802 0 CODE 0
__CFG_FOSC$INTIO67 0 0 ABS 0
?___aomod 1 0 COMRAM 1
Lcd_Out@buffer 5 0 COMRAM 1
__end_of_Lcd_Out 2C38 0 CODE 0
main@b C2 0 BANK0 1
dtoa@d 1E 0 COMRAM 1
?___awmod 1 0 COMRAM 1
dtoa@i 3E 0 COMRAM 1
efgtoa@pp 72 0 BANK0 1
dtoa@n 36 0 COMRAM 1
atoi@n 15 0 COMRAM 1
dtoa@p 30 0 COMRAM 1
dtoa@s 34 0 COMRAM 1
?___flsub 1A 0 COMRAM 1
atoi@s 8 0 COMRAM 1
__Hbigram 0 0 ABS 0
__Lbigram 0 0 ABS 0
__Hrparam 0 0 COMRAM 1
dtoa@w 32 0 COMRAM 1
__Lrparam 0 0 COMRAM 1
pad@fp 11 0 COMRAM 1
?_dtoa 1C 0 COMRAM 1
strncmp@_l 1 0 COMRAM 1
__Hram 0 0 ABS 0
_SetUp 320C 0 CODE 0
__Lram 0 0 ABS 0
__Hcomram 0 0 ABS 0
_putch 3212 0 CODE 0
__Lcomram 0 0 ABS 0
?_atoi 8 0 COMRAM 1
_fputc 2AFA 0 CODE 0
_width D2 0 BANK0 1
__Hsfr 0 0 ABS 0
___flge@ff1 1A 0 COMRAM 1
__Lsfr 0 0 ABS 0
_flags D6 0 BANK0 1
__Hbss 0 0 RAM 1
__CFG_STVREN$ON 0 0 ABS 0
__Lbss 0 0 RAM 1
___param_bank 0 0 ABS 0
__Hnvrram 0 0 COMRAM 1
__Lnvrram 0 0 COMRAM 1
__CFG_PWRTEN$ON 0 0 ABS 0
efgtoa@ou 60 0 BANK0 1
?_sprintf 9E 0 BANK0 1
_vfprintf 2ED8 0 CODE 0
_fputs 30A2 0 CODE 0
___fleq@ff1 1 0 COMRAM 1
__end_of_abs 310C 0 CODE 0
___flge@ff2 1E 0 COMRAM 1
_Lcd_Init 26EC 0 CODE 0
__end_of_vfpfcnvrt 1400 0 CODE 0
___fpclassifyf@F463 CC 0 BANK0 1
?___fltol 1 0 COMRAM 1
__end_of_putch 3214 0 CODE 0
?_strncmp 1 0 COMRAM 1
__Heeprom_data 0 0 EEDATA 0
__Leeprom_data 0 0 EEDATA 0
?___flmul 1 0 COMRAM 1
___fleq@ff2 5 0 COMRAM 1
?_isdigit 1 0 COMRAM 1
?_isupper 1 0 COMRAM 1
sprintf@ap AA 0 BANK0 1
_LATDbits F8C 0 ABS 0
__Hintsave_regs 0 0 BIGRAM 1
_LATEbits F8D 0 ABS 0
__Lintsave_regs 0 0 BIGRAM 1
?___fldiv 1 0 COMRAM 1
?___aodiv 1 0 COMRAM 1
?_tolower 7 0 COMRAM 1
__Hbigbss 0 0 BIGRAM 1
__Lbigbss 0 0 BIGRAM 1
?___awdiv 1 0 COMRAM 1
__Hintret 0 0 ABS 0
__Lintret 0 0 ABS 0
__Hramtop 600 0 RAM 0
__Lramtop 600 0 RAM 0
__Hstruct 0 0 COMRAM 1
__Lstruct 0 0 COMRAM 1
__Hbigdata 0 0 BIGRAM 1
__Lbigdata 0 0 BIGRAM 1
__Hmediumconst 0 0 MEDIUMCONST 0
__end_of_strlen 31C4 0 CODE 0
__Lmediumconst 0 0 MEDIUMCONST 0
__Hfarbss 0 0 FARRAM 0
__Lfarbss 0 0 FARRAM 0
__Hintcode 0 0 CODE 0
__Lintcode 0 0 CODE 0
__Hfardata 0 0 FARRAM 0
__Lfardata 0 0 FARRAM 0
strncmp@_r 3 0 COMRAM 1
__end_of___fpclassifyf 299E 0 CODE 0
__size_of_strcpy 0 0 ABS 0
__Habs1 0 0 ABS 0
__Labs1 0 0 ABS 0
__end_of_efgtoa FAA 0 CODE 0
__CFG_EBTR0$OFF 0 0 ABS 0
__size_of_tolower 0 0 ABS 0
__size_of_fputc 0 0 ABS 0
__HnvFARRAM 0 0 FARRAM 0
__end_of_Lcd_Chr_CP 249E 0 CODE 0
__LnvFARRAM 0 0 FARRAM 0
strcpy@src 3 0 COMRAM 1
__CFG_EBTR1$OFF 0 0 ABS 0
_vfpfcnvrt$408 52 0 COMRAM 1
__CFG_PBADEN$OFF 0 0 ABS 0
__end_of___fltol 2A58 0 CODE 0
__CFG_CCP2MX$PORTC1 0 0 ABS 0
fputc@c 1 0 COMRAM 1
__CFG_EBTR2$OFF 0 0 ABS 0
__end_of___flsub 3064 0 CODE 0
fputs@c E 0 COMRAM 1
__size_of___fldiv 0 0 ABS 0
__CFG_CCP3MX$PORTB5 0 0 ABS 0
fputs@i F 0 COMRAM 1
__end_of___flge 28D2 0 CODE 0
__end_of___awmod 2ED8 0 CODE 0
__Hdata 0 0 ABS 0
__Ldata 0 0 ABS 0
__CFG_EBTR3$OFF 0 0 ABS 0
___flge 2802 0 CODE 0
fputs@s A 0 COMRAM 1
dtoa@fp 1C 0 COMRAM 1
pad@buf 13 0 COMRAM 1
_efgtoa 62E 0 CODE 0
stackhi 5FF 0 ABS 0
___fldiv@new_exp 12 0 COMRAM 1
__HcstackBANK0 0 0 ABS 0
__LcstackBANK0 0 0 ABS 0
_floorf 1F2E 0 CODE 0
___aomod@sign 12 0 COMRAM 1
__pcstackBANK0 60 0 BANK0 1
___fleq 2CD2 0 CODE 0
_strlen 319A 0 CODE 0
___awmod@sign 6 0 COMRAM 1
__Htemp 0 0 COMRAM 1
__Ltemp 0 0 COMRAM 1
stacklo 150 0 ABS 0
__Hrbit 0 0 COMRAM 1
__Lrbit 0 0 COMRAM 1
__Hinit 4 0 CODE 0
__Linit 0 0 CODE 0
__Hintcodelo 0 0 CODE 0
__Lintcodelo 0 0 CODE 0
___wmul 31C4 0 CODE 0
__Hrbss 0 0 COMRAM 1
__end_of_main 2DE4 0 CODE 0
__Lrbss 0 0 COMRAM 1
__end_of_Lcd_Cmd 25C8 0 CODE 0
__Htext 0 0 ABS 0
__Ltext 0 0 ABS 0
__end_of___fldiv 1CE6 0 CODE 0
?_vfprintf 98 0 BANK0 1
_strcpy 2F80 0 CODE 0
___wmul@multiplier 1 0 COMRAM 1
___flmul@sign D 0 COMRAM 1
__size_of_pad 0 0 ABS 0
end_of_initialization 3202 0 CODE 0
___fldiv@sign 11 0 COMRAM 1
___aodiv@sign 12 0 COMRAM 1
___awdiv@sign 6 0 COMRAM 1
__size_of_abs 0 0 ABS 0
__end_of___flneg 319A 0 CODE 0
_efgtoa$392 6A 0 BANK0 1
___wmul@multiplicand 3 0 COMRAM 1
__size_of___aodiv 0 0 ABS 0
_efgtoa$383 64 0 BANK0 1
__end_of___aodiv 222C 0 CODE 0
vfprintf@fmt 9A 0 BANK0 1
__end_of_fputs 30DA 0 CODE 0
__size_of_putch 0 0 ABS 0
floorf@F524 C8 0 BANK0 1
_efgtoa$393 6C 0 BANK0 1
efgtoa@mode 81 0 BANK0 1
_efgtoa$384 66 0 BANK0 1
__size_of_strncmp 0 0 ABS 0
vfprintf@ap 9C 0 BANK0 1
__end_ofmain@Mensaje 60E 0 SMALLCONST 0
_TRISDbits F95 0 ABS 0
_TRISEbits F96 0 ABS 0
_efgtoa$394 6E 0 BANK0 1
___fladd@grs 10 0 COMRAM 1
__size_of_SetUp 0 0 ABS 0
__Hibigdata 0 0 CODE 0
__Libigdata 0 0 CODE 0
__size_of_strlen 0 0 ABS 0
__end_of_atoi 236C 0 CODE 0
__Hifardata 0 0 CODE 0
__Lifardata 0 0 CODE 0
__Hbank0 0 0 ABS 0
__Lbank0 0 0 ABS 0
__Hbank1 0 0 ABS 0
__Lbank1 0 0 ABS 0
__Hbank2 0 0 ABS 0
__Lbank2 0 0 ABS 0
Lcd_Init@data 5 0 COMRAM 1
__Hbank3 0 0 ABS 0
__Lbank3 0 0 ABS 0
__Hbank4 0 0 ABS 0
__Lbank4 0 0 ABS 0
__Hbank5 0 0 ABS 0
__Lbank5 0 0 ABS 0
__size_of_efgtoa 0 0 ABS 0
vfprintf@fp 98 0 BANK0 1
__Hpowerup 0 0 CODE 0
__Lpowerup 0 0 CODE 0
__Htext0 0 0 ABS 0
__Ltext0 0 0 ABS 0
__Htext1 0 0 ABS 0
__Ltext1 0 0 ABS 0
__ptext0 2D5C 0 CODE 0
___flmul@grs E 0 COMRAM 1
__Htext2 0 0 ABS 0
__Ltext2 0 0 ABS 0
__ptext1 2F2E 0 CODE 0
__Htext3 0 0 ABS 0
__Ltext3 0 0 ABS 0
__ptext2 2ED8 0 CODE 0
___fldiv@grs 14 0 COMRAM 1
__Htext4 0 0 ABS 0
__Ltext4 0 0 ABS 0
__ptext3 FAA 0 CODE 0
__Htext5 0 0 ABS 0
__CFG_P2BMX$PORTD2 0 0 ABS 0
__Ltext5 0 0 ABS 0
__ptext4 2A58 0 CODE 0
__Htext6 0 0 ABS 0
__Ltext6 0 0 ABS 0
__ptext5 62E 0 CODE 0
__Htext7 0 0 ABS 0
__Ltext7 0 0 ABS 0
__ptext6 2FD2 0 CODE 0
__Htext8 0 0 ABS 0
__Ltext8 0 0 ABS 0
_efgtoa$388 68 0 BANK0 1
__ptext7 310C 0 CODE 0
__Htext9 0 0 ABS 0
_vfpfcnvrt$413 54 0 COMRAM 1
__Ltext9 0 0 ABS 0
__ptext8 2F80 0 CODE 0
__CFG_T3CMX$PORTC0 0 0 ABS 0
__ptext9 1F2E 0 CODE 0
_vfpfcnvrt FAA 0 CODE 0
__Hclrtext 0 0 ABS 0
__Lclrtext 0 0 ABS 0
__end_of_isspace 30A2 0 CODE 0
__CFG_HFOFST$ON 0 0 ABS 0
efgtoa@c 34 0 COMRAM 1
strlen@a 3 0 COMRAM 1
___fpclassifyf@e 9 0 COMRAM 1
efgtoa@d 78 0 BANK0 1
efgtoa@e 90 0 BANK0 1
__end_of__initialization 3202 0 CODE 0
__CFG_PRICLKEN$ON 0 0 ABS 0
__end_of_floorf 20E4 0 CODE 0
efgtoa@f 30 0 COMRAM 1
___fpclassifyf@u B 0 COMRAM 1
floorf@e 28 0 COMRAM 1
efgtoa@g 8C 0 BANK0 1
efgtoa@h 82 0 BANK0 1
___rparam_used 1 0 ABS 0
_Lcd_Chr_CP 236C 0 CODE 0
__size_of_dtoa 0 0 ABS 0
efgtoa@i 8A 0 BANK0 1
strcpy@d 9 0 COMRAM 1
efgtoa@l 86 0 BANK0 1
efgtoa@m 74 0 BANK0 1
efgtoa@n 92 0 BANK0 1
floorf@m 24 0 COMRAM 1
_Lcd_Cmd 249E 0 CODE 0
efgtoa@p 7C 0 BANK0 1
__end_of_tolower 301E 0 CODE 0
__size_of___flge 0 0 ABS 0
efgtoa@t 70 0 BANK0 1
___fladd 1752 0 CODE 0
efgtoa@u 94 0 BANK0 1
strlen@s 1 0 COMRAM 1
atoi@neg E 0 COMRAM 1
floorf@u 2A 0 COMRAM 1
_isspace 3064 0 CODE 0
efgtoa@w 7F 0 BANK0 1
__Hidata 0 0 CODE 0
__Lidata 0 0 CODE 0
__Hrdata 0 0 COMRAM 1
__Lrdata 0 0 COMRAM 1
strcpy@s 7 0 COMRAM 1
floorf@x 1A 0 COMRAM 1
fputc@fp 3 0 COMRAM 1
__Hidloc 200008 0 IDLOC 0
__Lidloc 200000 0 IDLOC 0
?_efgtoa 2E 0 COMRAM 1
___flneg 316C 0 CODE 0
fputs@fp C 0 COMRAM 1
__Hstack 0 0 STACK 2
__Lstack 0 0 STACK 2
___aomod 25C8 0 CODE 0
___awmod 2E68 0 CODE 0
___fpclassifyf@x 1 0 COMRAM 1
__size_of___aomod 0 0 ABS 0
__Hparam 0 0 COMRAM 1
__Lparam 0 0 COMRAM 1
__Hspace_0 30000E 0 ABS 0
___flsub 301E 0 CODE 0
__HcstackCOMRAM 0 0 ABS 0
__Lspace_0 0 0 ABS 0
__LcstackCOMRAM 0 0 ABS 0
efgtoa@sign 7A 0 BANK0 1
__pcstackCOMRAM 1 0 COMRAM 1
?_floorf 1A 0 COMRAM 1
__end_of___aomod 26EC 0 CODE 0
_sprintf 2F2E 0 CODE 0
__Hspace_1 150 0 ABS 0
__Lspace_1 0 0 ABS 0
?_strlen 1 0 COMRAM 1
__Hsmallconst 62E 0 SMALLCONST 0
__Lsmallconst 600 0 SMALLCONST 0
__psmallconst 600 0 SMALLCONST 0
_Lcd_Out 2B9A 0 CODE 0
___fltol 299E 0 CODE 0
_strncmp 2A58 0 CODE 0
__Hspace_2 0 0 ABS 0
__Lspace_2 0 0 ABS 0
___flmul 1400 0 CODE 0
__Hnvbit 0 0 COMRAM 1
__Lnvbit 0 0 COMRAM 1
?___wmul 1 0 COMRAM 1
_isdigit 313C 0 CODE 0
_isupper 310C 0 CODE 0
__Hcinit 0 0 ABS 0
__Lcinit 0 0 ABS 0
__size_of_Lcd_Chr_CP 0 0 ABS 0
___fldiv 1A5E 0 CODE 0
___aodiv 20E4 0 CODE 0
_tolower 2FD2 0 CODE 0
__pcinit 31EA 0 CODE 0
__CFG_EBTRB$OFF 0 0 ABS 0
___awdiv 2DE4 0 CODE 0
__ramtop 600 0 RAM 0
__mediumconst 0 0 MEDIUMCONST 0
__size_of_main 0 0 ABS 0
__end_of_fputc 2B9A 0 CODE 0
__size_of___flmul 0 0 ABS 0
__Hconst 0 0 CONST 0
__Lconst 0 0 CONST 0
_dtoa$359 2E 0 COMRAM 1
_atoi$886 10 0 COMRAM 1
_atoi$887 14 0 COMRAM 1
_atoi$888 12 0 COMRAM 1
___fltol@exp1 A 0 COMRAM 1
__end_of_isdigit 316C 0 CODE 0
__end_of_sprintf 2F80 0 CODE 0
__size_of_Lcd_Out 0 0 ABS 0
__CFG_WRT0$OFF 0 0 ABS 0
__end_of_pad 2CD2 0 CODE 0
__CFG_WRT1$OFF 0 0 ABS 0
__HbssBANK0 0 0 ABS 0
__LbssBANK0 0 0 ABS 0
__CFG_MCLRE$EXTMCLR 0 0 ABS 0
__size_of___flsub 0 0 ABS 0
__CFG_WRT2$OFF 0 0 ABS 0
__pbssBANK0 C8 0 BANK0 1
___flmul@temp 18 0 COMRAM 1
__size_of_isdigit 0 0 ABS 0
sprintf@fmt A0 0 BANK0 1
Lcd_Cmd@data 3 0 COMRAM 1
__CFG_WRT3$OFF 0 0 ABS 0
__CFG_FCMEN$OFF 0 0 ABS 0
__size_of_isupper 0 0 ABS 0
__end_of___fladd 1A5E 0 CODE 0
__HbssBANK1 0 0 ABS 0
__LbssBANK1 0 0 ABS 0
__end_of_SetUp 3212 0 CODE 0
__pbssBANK1 100 0 BANK1 1
__Htext10 0 0 ABS 0
__Ltext10 0 0 ABS 0
__Htext20 0 0 ABS 0
__Ltext20 0 0 ABS 0
__ptext10 28D2 0 CODE 0
__Htext30 0 0 ABS 0
__Htext11 0 0 ABS 0
__Ltext30 0 0 ABS 0
__Ltext11 0 0 ABS 0
__ptext20 2DE4 0 CODE 0
__Htext21 0 0 ABS 0
__Ltext21 0 0 ABS 0
__ptext11 299E 0 CODE 0
__ptext30 222C 0 CODE 0
__Htext31 0 0 ABS 0
__Htext12 0 0 ABS 0
__Ltext31 0 0 ABS 0
__Ltext12 0 0 ABS 0
__ptext21 1CE6 0 CODE 0
__Htext22 0 0 ABS 0
__Ltext22 0 0 ABS 0
__ptext12 301E 0 CODE 0
__ptext31 3064 0 CODE 0
__Htext32 0 0 ABS 0
__Htext13 0 0 ABS 0
__Ltext32 0 0 ABS 0
__Ltext13 0 0 ABS 0
Lcd_Out@data A 0 COMRAM 1
__ptext22 2C38 0 CODE 0
_tolower$1002 D 0 COMRAM 1
__Htext23 0 0 ABS 0
__Ltext23 0 0 ABS 0
__ptext13 1752 0 CODE 0
__ptext32 313C 0 CODE 0
__Htext33 0 0 ABS 0
__Htext14 0 0 ABS 0
__Ltext33 0 0 ABS 0
__Ltext14 0 0 ABS 0
__ptext23 319A 0 CODE 0
__size_of___awdiv 0 0 ABS 0
__Htext24 0 0 ABS 0
__Ltext24 0 0 ABS 0
__ptext14 316C 0 CODE 0
__ptext33 31C4 0 CODE 0
__Htext34 0 0 ABS 0
__Htext15 0 0 ABS 0
__size_of_fputs 0 0 ABS 0
__Ltext34 0 0 ABS 0
__Ltext15 0 0 ABS 0
__ptext24 30A2 0 CODE 0
__Htext25 0 0 ABS 0
__Ltext25 0 0 ABS 0
__ptext15 1400 0 CODE 0
__ptext34 320C 0 CODE 0
___inthi_sp 0 0 STACK 2
__Htext35 0 0 ABS 0
__Htext16 0 0 ABS 0
__Ltext35 0 0 ABS 0
__Ltext16 0 0 ABS 0
__ptext25 2AFA 0 CODE 0
__Htext26 0 0 ABS 0
__Ltext26 0 0 ABS 0
__ptext16 2802 0 CODE 0
__ptext35 2B9A 0 CODE 0
__Htext36 0 0 ABS 0
__Htext17 0 0 ABS 0
__Ltext36 0 0 ABS 0
__Ltext17 0 0 ABS 0
__ptext26 3212 0 CODE 0
___aomod@divisor 9 0 COMRAM 1
__Htext27 0 0 ABS 0
__Ltext27 0 0 ABS 0
__ptext17 2CD2 0 CODE 0
__ptext36 236C 0 CODE 0
__end_of_strncmp 2AFA 0 CODE 0
___awmod@divisor 3 0 COMRAM 1
__Htext37 0 0 ABS 0
__Htext18 0 0 ABS 0
__Ltext37 0 0 ABS 0
__Ltext18 0 0 ABS 0
__ptext27 30DA 0 CODE 0
__Htext28 0 0 ABS 0
__Ltext28 0 0 ABS 0
__ptext18 1A5E 0 CODE 0
__ptext37 26EC 0 CODE 0
___fltol@sign1 9 0 COMRAM 1
__Htext38 0 0 ABS 0
__Htext19 0 0 ABS 0
__Ltext38 0 0 ABS 0
__Ltext19 0 0 ABS 0
__ptext28 25C8 0 CODE 0
__CFG_WDTEN$OFF 0 0 ABS 0
__Htext29 0 0 ABS 0
__Ltext29 0 0 ABS 0
__ptext19 2E68 0 CODE 0
__ptext38 249E 0 CODE 0
___intlo_sp 0 0 STACK 2
__ptext29 20E4 0 CODE 0
__end_of_dtoa 1F2E 0 CODE 0
main@TextoLCD B2 0 BANK0 1
_OSCCONbits FD3 0 ABS 0
__size_of_Lcd_Init 0 0 ABS 0
__end_of_isupper 313C 0 CODE 0
___aodiv@divisor 9 0 COMRAM 1
_isspace$917 7 0 COMRAM 1
___awdiv@divisor 3 0 COMRAM 1
vfpfcnvrt@fmt 42 0 COMRAM 1
__size_of___fladd 0 0 ABS 0
strcpy@dest 1 0 COMRAM 1
__CFG_CP0$OFF 0 0 ABS 0
__smallconst 600 0 SMALLCONST 0
efgtoa@nmode 7E 0 BANK0 1
__CFG_CP1$OFF 0 0 ABS 0
__size_of___wmul 0 0 ABS 0
__Hreset_vec 0 0 CODE 0
__Lreset_vec 0 0 CODE 0
__CFG_CP2$OFF 0 0 ABS 0
__CFG_CP3$OFF 0 0 ABS 0
__CFG_BORV$190 0 0 ABS 0
__size_of_atoi 0 0 ABS 0
vfpfcnvrt@ap 44 0 COMRAM 1
__accesstop 60 0 ABS 0
main@Mensaje 601 0 SMALLCONST 0
__Hintcode_body 0 0 ABS 0
__Lintcode_body 0 0 ABS 0
intlevel0 0 0 CODE 0
intlevel1 0 0 CODE 0
vfprintf@cfmt 5E 0 COMRAM 1
__CFG_WRTB$OFF 0 0 ABS 0
intlevel2 0 0 CODE 0
intlevel3 0 0 CODE 0
__CFG_WRTC$OFF 0 0 ABS 0
__end_of_vfprintf 2F2E 0 CODE 0
__CFG_WRTD$OFF 0 0 ABS 0
vfpfcnvrt@ll 4A 0 COMRAM 1
__size_of___fltol 0 0 ABS 0
___fladd@aexp E 0 COMRAM 1
__CFG_CPB$OFF 0 0 ABS 0
__end_of___wmul 31EA 0 CODE 0
___fladd@bexp F 0 COMRAM 1
__CFG_CPD$OFF 0 0 ABS 0
start_initialization 31EA 0 CODE 0
main@u16_a C6 0 BANK0 1
___aodiv@quotient 13 0 COMRAM 1
___awdiv@quotient 7 0 COMRAM 1
__CFG_BOREN$SBORDIS 0 0 ABS 0
__CFG_IESO$OFF 0 0 ABS 0
?_vfpfcnvrt 40 0 COMRAM 1
___fladd@a 5 0 COMRAM 1
vfpfcnvrt@fp 40 0 COMRAM 1
___fladd@b 1 0 COMRAM 1
__size_of_sprintf 0 0 ABS 0
__size_of___awmod 0 0 ABS 0
___flmul@aexp 12 0 COMRAM 1
__size_of___flneg 0 0 ABS 0
___fldiv@aexp 19 0 COMRAM 1
__size_of___fpclassifyf 0 0 ABS 0
__initialization 31EA 0 CODE 0
___flmul@bexp 13 0 COMRAM 1
___flsub@a 1E 0 COMRAM 1
___fldiv@bexp 18 0 COMRAM 1
___flmul@prod 14 0 COMRAM 1
___aomod@dividend 1 0 COMRAM 1
___flsub@b 1A 0 COMRAM 1
___awmod@dividend 1 0 COMRAM 1
__activetblptr 2 0 ABS 0
___aomod@counter 11 0 COMRAM 1
___awmod@counter 5 0 COMRAM 1
___wmul@product 5 0 COMRAM 1
__size_of_isspace 0 0 ABS 0
isspace@c 1 0 COMRAM 1
___flmul@a 5 0 COMRAM 1
?___fpclassifyf 1 0 COMRAM 1
___fldiv@a 5 0 COMRAM 1
___flmul@b 1 0 COMRAM 1
__size_of_vfpfcnvrt 0 0 ABS 0
___fpclassifyf 28D2 0 CODE 0
__CFG_LVP$OFF 0 0 ABS 0
___fldiv@b 1 0 COMRAM 1
___aodiv@dividend 1 0 COMRAM 1
isdigit@c 1 0 COMRAM 1
isupper@c 1 0 COMRAM 1
___awdiv@dividend 1 0 COMRAM 1
tolower@c 7 0 COMRAM 1
%segments
reset_vec 0 3 CODE 0 0
smallconst 600 62D SMALLCONST 600 0
config 300000 30000D CONFIG 300000 0
idloc 200000 200007 IDLOC 200000 0
cstackCOMRAM 1 5F COMRAM 1 1
cstackBANK0 60 D7 BANK0 60 1
bssBANK1 100 14F BANK1 100 1
text5 62E 3213 CODE 62E 0
%locals
dist/default/production\LCD_01.X.production.o
C:\Program Files (x86)\Microchip\xc8\v2.05\pic\include\pic18f45k22.h
C:\Users\Lenovo\AppData\Local\Temp\s7j4.
1339 31EA 0 CODE 0
1341 31EA 0 CODE 0
1344 31EA 0 CODE 0
1370 31EA 0 CODE 0
1371 31EE 0 CODE 0
1372 31F0 0 CODE 0
1373 31F0 0 CODE 0
1374 31F2 0 CODE 0
1375 31F4 0 CODE 0
1378 31F6 0 CODE 0
1379 31FA 0 CODE 0
1380 31FC 0 CODE 0
1381 31FC 0 CODE 0
1382 31FE 0 CODE 0
1383 3200 0 CODE 0
1389 3202 0 CODE 0
1392 3202 0 CODE 0
1393 3204 0 CODE 0
1394 3206 0 CODE 0
1395 3208 0 CODE 0
ldc_01.c
41 2D5C 0 CODE 0
47 2D5C 0 CODE 0
48 2D66 0 CODE 0
51 2D76 0 CODE 0
52 2D7A 0 CODE 0
54 2D7E 0 CODE 0
55 2D84 0 CODE 0
56 2D96 0 CODE 0
57 2D9C 0 CODE 0
59 2DA2 0 CODE 0
60 2DD0 0 CODE 0
63 2DE2 0 CODE 0
C:\Program Files (x86)\Microchip\xc8\v2.05\pic\sources\c99\common\nf_sprintf.c
9 2F2E 0 CODE 0
15 2F2E 0 CODE 0
16 2F38 0 CODE 0
17 2F40 0 CODE 0
18 2F48 0 CODE 0
19 2F50 0 CODE 0
20 2F6C 0 CODE 0
23 2F7E 0 CODE 0
C:\Program Files (x86)\Microchip\xc8\v2.05\pic\sources\c99\common\doprnt.c
1368 2ED8 0 CODE 0
1373 2ED8 0 CODE 0
1374 2EE0 0 CODE 0
1375 2EEA 0 CODE 0
1376 2EEC 0 CODE 0
1375 2F12 0 CODE 0
1378 2F24 0 CODE 0
1382 2F2C 0 CODE 0
C:\Program Files (x86)\Microchip\xc8\v2.05\pic\sources\c99\common\doprnt.c
670 FAA 0 CODE 0
680 FAA 0 CODE 0
681 FC4 0 CODE 0
683 FD2 0 CODE 0
684 FE4 0 CODE 0
740 FE8 0 CODE 0
741 1002 0 CODE 0
742 100A 0 CODE 0
743 1018 0 CODE 0
744 1032 0 CODE 0
745 1040 0 CODE 0
746 1068 0 CODE 0
747 106A 0 CODE 0
748 1086 0 CODE 0
749 1088 0 CODE 0
748 1096 0 CODE 0
757 10DC 0 CODE 0
758 10FC 0 CODE 0
759 1102 0 CODE 0
760 1132 0 CODE 0
761 1138 0 CODE 0
825 1168 0 CODE 0
827 119C 0 CODE 0
828 11AA 0 CODE 0
830 11E4 0 CODE 0
920 121A 0 CODE 0
922 1222 0 CODE 0
923 1238 0 CODE 0
924 1246 0 CODE 0
926 1276 0 CODE 0
928 12A0 0 CODE 0
930 12C4 0 CODE 0
931 12EA 0 CODE 0
934 132C 0 CODE 0
936 135C 0 CODE 0
1350 136E 0 CODE 0
1351 1388 0 CODE 0
1352 1396 0 CODE 0
1353 13AA 0 CODE 0
1357 13B4 0 CODE 0
1358 13C2 0 CODE 0
1362 13CC 0 CODE 0
1363 13F0 0 CODE 0
C:\Program Files (x86)\Microchip\xc8\v2.05\pic\sources\c99\common\strncmp.c
3 2A58 0 CODE 0
5 2A58 0 CODE 0
6 2A68 0 CODE 0
7 2A82 0 CODE 0
8 2AD6 0 CODE 0
9 2AF8 0 CODE 0
C:\Program Files (x86)\Microchip\xc8\v2.05\pic\sources\c99\common\doprnt.c
319 62E 0 CODE 0
326 62E 0 CODE 0
327 638 0 CODE 0
328 648 0 CODE 0
329 64C 0 CODE 0
330 654 0 CODE 0
334 678 0 CODE 0
335 682 0 CODE 0
336 68A 0 CODE 0
337 696 0 CODE 0
338 6B2 0 CODE 0
339 6B6 0 CODE 0
343 6BC 0 CODE 0
344 6D8 0 CODE 0
345 70E 0 CODE 0
346 726 0 CODE 0
347 728 0 CODE 0
349 740 0 CODE 0
350 74A 0 CODE 0
352 770 0 CODE 0
353 78C 0 CODE 0
354 7C2 0 CODE 0
355 7DA 0 CODE 0
356 7DC 0 CODE 0
363 7F6 0 CODE 0
364 808 0 CODE 0
365 810 0 CODE 0
367 83A 0 CODE 0
368 86E 0 CODE 0
366 874 0 CODE 0
371 8C2 0 CODE 0
372 8F6 0 CODE 0
370 8FE 0 CODE 0
377 926 0 CODE 0
378 936 0 CODE 0
379 93A 0 CODE 0
380 942 0 CODE 0
381 94A 0 CODE 0
383 952 0 CODE 0
385 974 0 CODE 0
389 97A 0 CODE 0
390 982 0 CODE 0
391 9BE 0 CODE 0
393 9C2 0 CODE 0
398 9C6 0 CODE 0
399 9CE 0 CODE 0
400 9E0 0 CODE 0
404 9E4 0 CODE 0
405 9EC 0 CODE 0
406 9F0 0 CODE 0
407 A00 0 CODE 0
409 A08 0 CODE 0
410 A10 0 CODE 0
415 A18 0 CODE 0
416 A20 0 CODE 0
417 A30 0 CODE 0
418 A40 0 CODE 0
419 A42 0 CODE 0
420 A8A 0 CODE 0
421 AA6 0 CODE 0
422 AFE 0 CODE 0
423 B32 0 CODE 0
418 B38 0 CODE 0
427 B4C 0 CODE 0
428 B80 0 CODE 0
429 BA8 0 CODE 0
432 BAE 0 CODE 0
433 BDC 0 CODE 0
438 BEC 0 CODE 0
441 C20 0 CODE 0
442 C30 0 CODE 0
443 C4C 0 CODE 0
444 C54 0 CODE 0
445 C5C 0 CODE 0
446 C64 0 CODE 0
447 C66 0 CODE 0
448 CAE 0 CODE 0
449 CCA 0 CODE 0
450 CE2 0 CODE 0
451 CE6 0 CODE 0
452 CE8 0 CODE 0
453 CF2 0 CODE 0
454 D06 0 CODE 0
455 D0C 0 CODE 0
458 D16 0 CODE 0
459 D2A 0 CODE 0
460 D30 0 CODE 0
457 D36 0 CODE 0
462 D3E 0 CODE 0
463 D54 0 CODE 0
465 D5A 0 CODE 0
466 DB2 0 CODE 0
467 DE6 0 CODE 0
468 DEE 0 CODE 0
446 DF2 0 CODE 0
470 E16 0 CODE 0
471 E20 0 CODE 0
473 E34 0 CODE 0
476 E44 0 CODE 0
477 E4C 0 CODE 0
478 E54 0 CODE 0
479 E64 0 CODE 0
480 E6C 0 CODE 0
481 E70 0 CODE 0
482 E78 0 CODE 0
484 E80 0 CODE 0
485 E88 0 CODE 0
486 E8A 0 CODE 0
487 E90 0 CODE 0
488 EB6 0 CODE 0
489 ED2 0 CODE 0
490 EDA 0 CODE 0
485 EE0 0 CODE 0
492 EF6 0 CODE 0
493 EFC 0 CODE 0
494 F24 0 CODE 0
495 F2A 0 CODE 0
496 F30 0 CODE 0
497 F84 0 CODE 0
498 F8A 0 CODE 0
C:\Program Files (x86)\Microchip\xc8\v2.05\pic\sources\c99\common\tolower.c
4 2FD2 0 CODE 0
6 2FD2 0 CODE 0
7 3014 0 CODE 0
8 301C 0 CODE 0
C:\Program Files (x86)\Microchip\xc8\v2.05\pic\sources\c99\common\isupper.c
5 310C 0 CODE 0
7 310C 0 CODE 0
8 313A 0 CODE 0
C:\Program Files (x86)\Microchip\xc8\v2.05\pic\sources\c99\common\strcpy.c
7 2F80 0 CODE 0
13 2F80 0 CODE 0
14 2F88 0 CODE 0
15 2F90 0 CODE 0
C:\Program Files (x86)\Microchip\xc8\v2.05\pic\sources\c99\common\floorf.c
3 1F2E 0 CODE 0
5 1F2E 0 CODE 0
6 1F4E 0 CODE 0
9 1F84 0 CODE 0
10 1F94 0 CODE 0
11 1FA6 0 CODE 0
12 1FAA 0 CODE 0
13 1FE2 0 CODE 0
16 2006 0 CODE 0
17 2034 0 CODE 0
18 2044 0 CODE 0
19 2064 0 CODE 0
21 2066 0 CODE 0
22 2094 0 CODE 0
23 20A4 0 CODE 0
24 20C2 0 CODE 0
26 20D2 0 CODE 0
27 20E2 0 CODE 0
C:\Program Files (x86)\Microchip\xc8\v2.05\pic\sources\c99\common\__fpclassifyf.c
4 28D2 0 CODE 0
6 28D2 0 CODE 0
7 28F2 0 CODE 0
8 291A 0 CODE 0
9 2954 0 CODE 0
10 2994 0 CODE 0
11 299C 0 CODE 0
C:\Program Files (x86)\Microchip\xc8\v2.05\pic\sources\c99\common\fltol.c
43 299E 0 CODE 0
47 299E 0 CODE 0
48 29AA 0 CODE 0
49 29BC 0 CODE 0
50 29E2 0 CODE 0
51 29E4 0 CODE 0
52 29F4 0 CODE 0
53 29F8 0 CODE 0
54 29FC 0 CODE 0
57 2A06 0 CODE 0
60 2A16 0 CODE 0
63 2A1E 0 CODE 0
64 2A28 0 CODE 0
62 2A2A 0 CODE 0
67 2A30 0 CODE 0
68 2A36 0 CODE 0
69 2A46 0 CODE 0
70 2A56 0 CODE 0
C:\Program Files (x86)\Microchip\xc8\v2.05\pic\sources\c99\common\sprcadd.c
245 301E 0 CODE 0
248 301E 0 CODE 0
249 302E 0 CODE 0
250 3062 0 CODE 0
C:\Program Files (x86)\Microchip\xc8\v2.05\pic\sources\c99\common\sprcadd.c
10 1752 0 CODE 0
21 1752 0 CODE 0
22 1758 0 CODE 0
23 175E 0 CODE 0
24 1760 0 CODE 0
28 1762 0 CODE 0
30 1768 0 CODE 0
32 176E 0 CODE 0
35 177E 0 CODE 0
37 1780 0 CODE 0
41 1782 0 CODE 0
44 1792 0 CODE 0
46 1798 0 CODE 0
47 179E 0 CODE 0
49 17A0 0 CODE 0
50 17A6 0 CODE 0
51 17A8 0 CODE 0
55 17AA 0 CODE 0
57 17B0 0 CODE 0
59 17B6 0 CODE 0
62 17C6 0 CODE 0
64 17C8 0 CODE 0
68 17CA 0 CODE 0
75 17DA 0 CODE 0
77 17E2 0 CODE 0
78 17E6 0 CODE 0
81 17EA 0 CODE 0
82 17EE 0 CODE 0
83 17F2 0 CODE 0
84 17F6 0 CODE 0
85 17FA 0 CODE 0
86 17FE 0 CODE 0
87 1802 0 CODE 0
88 1806 0 CODE 0
89 180A 0 CODE 0
90 180E 0 CODE 0
91 1812 0 CODE 0
92 1816 0 CODE 0
93 181A 0 CODE 0
94 181E 0 CODE 0
95 1822 0 CODE 0
98 1826 0 CODE 0
100 182A 0 CODE 0
101 1848 0 CODE 0
102 185C 0 CODE 0
103 186C 0 CODE 0
104 1870 0 CODE 0
106 1872 0 CODE 0
109 1872 0 CODE 0
110 1876 0 CODE 0
111 187E 0 CODE 0
113 1880 0 CODE 0
115 1884 0 CODE 0
116 1886 0 CODE 0
118 1888 0 CODE 0
119 1892 0 CODE 0
120 1894 0 CODE 0
106 1894 0 CODE 0
124 189C 0 CODE 0
127 18A0 0 CODE 0
128 18A6 0 CODE 0
132 18B8 0 CODE 0
134 18C8 0 CODE 0
135 18CC 0 CODE 0
136 18D0 0 CODE 0
137 18D8 0 CODE 0
139 18DA 0 CODE 0
141 18DE 0 CODE 0
142 18E0 0 CODE 0
144 18E2 0 CODE 0
145 18EC 0 CODE 0
153 18F0 0 CODE 0
154 190C 0 CODE 0
155 193C 0 CODE 0
156 1940 0 CODE 0
157 1942 0 CODE 0
158 1948 0 CODE 0
162 1956 0 CODE 0
163 1966 0 CODE 0
166 1966 0 CODE 0
167 1978 0 CODE 0
172 198A 0 CODE 0
173 1994 0 CODE 0
174 1996 0 CODE 0
176 1998 0 CODE 0
177 199C 0 CODE 0
180 19A0 0 CODE 0
182 19A4 0 CODE 0
183 19A8 0 CODE 0
171 19AA 0 CODE 0
192 19AE 0 CODE 0
193 19B2 0 CODE 0
194 19B6 0 CODE 0
195 19C2 0 CODE 0
196 19C6 0 CODE 0
197 19C8 0 CODE 0
198 19C8 0 CODE 0
202 19CC 0 CODE 0
203 19CC 0 CODE 0
204 19D2 0 CODE 0
205 19DE 0 CODE 0
206 19E2 0 CODE 0
207 1A0C 0 CODE 0
208 1A10 0 CODE 0
215 1A12 0 CODE 0
216 1A1E 0 CODE 0
218 1A2E 0 CODE 0
219 1A34 0 CODE 0
225 1A38 0 CODE 0
226 1A3C 0 CODE 0
227 1A3E 0 CODE 0
230 1A40 0 CODE 0
232 1A42 0 CODE 0
233 1A48 0 CODE 0
234 1A4A 0 CODE 0
236 1A4C 0 CODE 0
237 1A5C 0 CODE 0
C:\Program Files (x86)\Microchip\xc8\v2.05\pic\sources\c99\common\flneg.c
15 316C 0 CODE 0
17 316C 0 CODE 0
18 3178 0 CODE 0
19 3188 0 CODE 0
20 3198 0 CODE 0
C:\Program Files (x86)\Microchip\xc8\v2.05\pic\sources\c99\common\sprcmul.c
8 1400 0 CODE 0
17 1400 0 CODE 0
18 1406 0 CODE 0
19 140C 0 CODE 0
20 140E 0 CODE 0
24 1410 0 CODE 0
26 1416 0 CODE 0
28 141C 0 CODE 0
31 142C 0 CODE 0
33 142E 0 CODE 0
36 1430 0 CODE 0
39 1440 0 CODE 0
40 1446 0 CODE 0
41 144C 0 CODE 0
42 144E 0 CODE 0
45 1450 0 CODE 0
48 1456 0 CODE 0
50 145C 0 CODE 0
53 146C 0 CODE 0
54 146E 0 CODE 0
57 1470 0 CODE 0
58 1480 0 CODE 0
65 1480 0 CODE 0
66 148C 0 CODE 0
95 149E 0 CODE 0
96 14AA 0 CODE 0
97 14B4 0 CODE 0
98 14BE 0 CODE 0
99 14CA 0 CODE 0
100 14D6 0 CODE 0
101 14E2 0 CODE 0
102 14EE 0 CODE 0
103 14FA 0 CODE 0
104 1506 0 CODE 0
105 1514 0 CODE 0
106 1520 0 CODE 0
107 1530 0 CODE 0
108 153C 0 CODE 0
109 154C 0 CODE 0
110 155A 0 CODE 0
111 1566 0 CODE 0
112 1576 0 CODE 0
113 1582 0 CODE 0
114 1592 0 CODE 0
115 159E 0 CODE 0
116 15AE 0 CODE 0
117 15BA 0 CODE 0
145 15E4 0 CODE 0
146 1616 0 CODE 0
149 1624 0 CODE 0
152 163E 0 CODE 0
153 1640 0 CODE 0
154 164A 0 CODE 0
155 164C 0 CODE 0
157 164E 0 CODE 0
158 1658 0 CODE 0
152 165E 0 CODE 0
163 1662 0 CODE 0
164 1666 0 CODE 0
165 166A 0 CODE 0
166 168E 0 CODE 0
167 1692 0 CODE 0
168 1694 0 CODE 0
169 1694 0 CODE 0
173 1698 0 CODE 0
174 1698 0 CODE 0
175 169E 0 CODE 0
176 16AA 0 CODE 0
177 16AE 0 CODE 0
178 16D8 0 CODE 0
183 16DC 0 CODE 0
184 16EA 0 CODE 0
187 16FA 0 CODE 0
188 1708 0 CODE 0
190 1718 0 CODE 0
191 171C 0 CODE 0
192 171E 0 CODE 0
194 171E 0 CODE 0
195 1722 0 CODE 0
196 1732 0 CODE 0
197 1734 0 CODE 0
199 1736 0 CODE 0
201 173C 0 CODE 0
203 1740 0 CODE 0
205 1750 0 CODE 0
C:\Program Files (x86)\Microchip\xc8\v2.05\pic\sources\c99\common\flge.c
4 2802 0 CODE 0
7 2802 0 CODE 0
8 2826 0 CODE 0
9 2836 0 CODE 0
10 285A 0 CODE 0
12 286A 0 CODE 0
13 286E 0 CODE 0
14 2880 0 CODE 0
15 2884 0 CODE 0
16 2896 0 CODE 0
17 28A6 0 CODE 0
18 28B6 0 CODE 0
19 28D0 0 CODE 0
C:\Program Files (x86)\Microchip\xc8\v2.05\pic\sources\c99\common\fleq.c
4 2CD2 0 CODE 0
7 2CD2 0 CODE 0
8 2CF6 0 CODE 0
9 2D06 0 CODE 0
10 2D2A 0 CODE 0
11 2D3A 0 CODE 0
12 2D5A 0 CODE 0
C:\Program Files (x86)\Microchip\xc8\v2.05\pic\sources\c99\common\sprcdiv.c
11 1A5E 0 CODE 0
26 1A5E 0 CODE 0
27 1A64 0 CODE 0
28 1A6A 0 CODE 0
29 1A6C 0 CODE 0
33 1A6E 0 CODE 0
35 1A74 0 CODE 0
37 1A7A 0 CODE 0
40 1A8A 0 CODE 0
42 1A8C 0 CODE 0
46 1A8E 0 CODE 0
49 1A9E 0 CODE 0
50 1AA4 0 CODE 0
51 1AAA 0 CODE 0
52 1AAC 0 CODE 0
56 1AAE 0 CODE 0
58 1AB4 0 CODE 0
60 1ABA 0 CODE 0
63 1ACA 0 CODE 0
65 1ACC 0 CODE 0
69 1ACE 0 CODE 0
75 1ADE 0 CODE 0
76 1AEA 0 CODE 0
77 1AFA 0 CODE 0
78 1B02 0 CODE 0
79 1B06 0 CODE 0
83 1B18 0 CODE 0
85 1B1E 0 CODE 0
89 1B30 0 CODE 0
92 1B4A 0 CODE 0
93 1B5A 0 CODE 0
94 1B6A 0 CODE 0
96 1B7A 0 CODE 0
97 1B7E 0 CODE 0
100 1B80 0 CODE 0
101 1B86 0 CODE 0
102 1B90 0 CODE 0
103 1B9A 0 CODE 0
104 1B9C 0 CODE 0
106 1B9E 0 CODE 0
112 1BA8 0 CODE 0
115 1BBC 0 CODE 0
116 1BBE 0 CODE 0
118 1BCE 0 CODE 0
119 1BD0 0 CODE 0
97 1BD0 0 CODE 0
122 1BD6 0 CODE 0
123 1BE2 0 CODE 0
128 1BE6 0 CODE 0
129 1BF0 0 CODE 0
130 1BF2 0 CODE 0
132 1BF4 0 CODE 0
133 1BFE 0 CODE 0
127 1C04 0 CODE 0
139 1C08 0 CODE 0
140 1C0C 0 CODE 0
141 1C10 0 CODE 0
142 1C34 0 CODE 0
143 1C38 0 CODE 0
144 1C3A 0 CODE 0
145 1C3A 0 CODE 0
149 1C3E 0 CODE 0
150 1C3E 0 CODE 0
151 1C44 0 CODE 0
152 1C50 0 CODE 0
153 1C54 0 CODE 0
154 1C7E 0 CODE 0
159 1C82 0 CODE 0
160 1C90 0 CODE 0
161 1C96 0 CODE 0
165 1CA6 0 CODE 0
166 1CB4 0 CODE 0
167 1CBC 0 CODE 0
169 1CCC 0 CODE 0
173 1CD0 0 CODE 0
175 1CD4 0 CODE 0
176 1CD8 0 CODE 0
177 1CDA 0 CODE 0
180 1CDC 0 CODE 0
182 1CDE 0 CODE 0
C:\Program Files (x86)\Microchip\xc8\v2.05\pic\sources\c99\common\awmod.c
7 2E68 0 CODE 0
12 2E68 0 CODE 0
13 2E6C 0 CODE 0
14 2E70 0 CODE 0
15 2E78 0 CODE 0
17 2E7C 0 CODE 0
18 2E80 0 CODE 0
19 2E88 0 CODE 0
20 2E90 0 CODE 0
21 2E94 0 CODE 0
22 2E96 0 CODE 0
23 2E9C 0 CODE 0
21 2E9E 0 CODE 0
26 2EA2 0 CODE 0
27 2EAE 0 CODE 0
28 2EB6 0 CODE 0
29 2EBC 0 CODE 0
31 2EC0 0 CODE 0
32 2EC6 0 CODE 0
33 2ECE 0 CODE 0
34 2ED6 0 CODE 0
C:\Program Files (x86)\Microchip\xc8\v2.05\pic\sources\c99\common\awdiv.c
7 2DE4 0 CODE 0
13 2DE4 0 CODE 0
14 2DE8 0 CODE 0
15 2DEC 0 CODE 0
16 2DF4 0 CODE 0
18 2DF8 0 CODE 0
19 2DFC 0 CODE 0
20 2E04 0 CODE 0
22 2E08 0 CODE 0
23 2E10 0 CODE 0
24 2E18 0 CODE 0
25 2E1C 0 CODE 0
26 2E1E 0 CODE 0
27 2E24 0 CODE 0
25 2E26 0 CODE 0
30 2E2A 0 CODE 0
31 2E30 0 CODE 0
32 2E3C 0 CODE 0
33 2E44 0 CODE 0
35 2E46 0 CODE 0
36 2E4C 0 CODE 0
38 2E50 0 CODE 0
39 2E56 0 CODE 0
40 2E5E 0 CODE 0
41 2E66 0 CODE 0
C:\Program Files (x86)\Microchip\xc8\v2.05\pic\sources\c99\common\doprnt.c
274 1CE6 0 CODE 0
280 1CE6 0 CODE 0
281 1D06 0 CODE 0
282 1D14 0 CODE 0
283 1D1C 0 CODE 0
287 1D3C 0 CODE 0
288 1D40 0 CODE 0
290 1D42 0 CODE 0
291 1D62 0 CODE 0
292 1D6A 0 CODE 0
293 1D76 0 CODE 0
297 1D7C 0 CODE 0
298 1D84 0 CODE 0
299 1D8A 0 CODE 0
300 1D8C 0 CODE 0
301 1D92 0 CODE 0
302 1E14 0 CODE 0
303 1E1A 0 CODE 0
304 1E20 0 CODE 0
299 1E84 0 CODE 0
308 1EC8 0 CODE 0
309 1ED6 0 CODE 0
310 1EDC 0 CODE 0
314 1F04 0 CODE 0
315 1F2C 0 CODE 0
C:\Program Files (x86)\Microchip\xc8\v2.05\pic\sources\c99\common\doprnt.c
72 2C38 0 CODE 0
77 2C38 0 CODE 0
78 2C3E 0 CODE 0
82 2C52 0 CODE 0
83 2C68 0 CODE 0
84 2C70 0 CODE 0
85 2C72 0 CODE 0
86 2C86 0 CODE 0
84 2C8A 0 CODE 0
90 2C9E 0 CODE 0
91 2CA4 0 CODE 0
94 2CB8 0 CODE 0
95 2CD0 0 CODE 0
C:\Program Files (x86)\Microchip\xc8\v2.05\pic\sources\c99\common\strlen.c
12 319A 0 CODE 0
14 319A 0 CODE 0
16 31A2 0 CODE 0
17 31A4 0 CODE 0
16 31A8 0 CODE 0
25 31B6 0 CODE 0
26 31C2 0 CODE 0
C:\Program Files (x86)\Microchip\xc8\v2.05\pic\sources\c99\common\nf_fputs.c
8 30A2 0 CODE 0
13 30A2 0 CODE 0
14 30AA 0 CODE 0
15 30AC 0 CODE 0
16 30BE 0 CODE 0
14 30C2 0 CODE 0
C:\Program Files (x86)\Microchip\xc8\v2.05\pic\sources\c99\common\nf_fputc.c
8 2AFA 0 CODE 0
12 2AFA 0 CODE 0
13 2B0A 0 CODE 0
14 2B10 0 CODE 0
15 2B12 0 CODE 0
16 2B52 0 CODE 0
17 2B86 0 CODE 0
21 2B98 0 CODE 0
C:\Program Files (x86)\Microchip\xc8\v2.05\pic\sources\c99\common\putch.c
7 3212 0 CODE 0
9 3212 0 CODE 0
C:\Program Files (x86)\Microchip\xc8\v2.05\pic\sources\c99\common\abs.c
1 30DA 0 CODE 0
3 30DA 0 CODE 0
4 310A 0 CODE 0
C:\Program Files (x86)\Microchip\xc8\v2.05\pic\sources\c99\common\aomod.c
9 25C8 0 CODE 0
14 25C8 0 CODE 0
15 25CC 0 CODE 0
16 25D0 0 CODE 0
17 25F0 0 CODE 0
19 25F4 0 CODE 0
20 25F8 0 CODE 0
21 2618 0 CODE 0
22 262C 0 CODE 0
23 2630 0 CODE 0
24 2632 0 CODE 0
25 2644 0 CODE 0
23 2646 0 CODE 0
28 264A 0 CODE 0
29 266E 0 CODE 0
30 268E 0 CODE 0
31 26A0 0 CODE 0
33 26A4 0 CODE 0
34 26AA 0 CODE 0
35 26CA 0 CODE 0
36 26EA 0 CODE 0
C:\Program Files (x86)\Microchip\xc8\v2.05\pic\sources\c99\common\aodiv.c
9 20E4 0 CODE 0
15 20E4 0 CODE 0
16 20E8 0 CODE 0
17 20EC 0 CODE 0
18 210C 0 CODE 0
20 2110 0 CODE 0
21 2114 0 CODE 0
22 2134 0 CODE 0
24 2138 0 CODE 0
25 2144 0 CODE 0
26 2158 0 CODE 0
27 215C 0 CODE 0
28 215E 0 CODE 0
29 2170 0 CODE 0
27 2172 0 CODE 0
32 2176 0 CODE 0
33 2188 0 CODE 0
34 21AC 0 CODE 0
35 21CC 0 CODE 0
37 21CE 0 CODE 0
38 21E0 0 CODE 0
40 21E4 0 CODE 0
41 21EA 0 CODE 0
42 220A 0 CODE 0
43 222A 0 CODE 0
C:\Program Files (x86)\Microchip\xc8\v2.05\pic\sources\c99\common\atoi.c
4 222C 0 CODE 0
6 222C 0 CODE 0
7 223C 0 CODE 0
9 2298 0 CODE 0
10 22A0 0 CODE 0
11 22A4 0 CODE 0
14 22CE 0 CODE 0
13 2302 0 CODE 0
15 2340 0 CODE 0
16 236A 0 CODE 0
C:\Program Files (x86)\Microchip\xc8\v2.05\pic\sources\c99\common\isspace.c
5 3064 0 CODE 0
7 3064 0 CODE 0
8 30A0 0 CODE 0
C:\Program Files (x86)\Microchip\xc8\v2.05\pic\sources\c99\common\isdigit.c
5 313C 0 CODE 0
7 313C 0 CODE 0
8 316A 0 CODE 0
C:\Program Files (x86)\Microchip\xc8\v2.05\pic\sources\c99\common\Umul16.c
15 31C4 0 CODE 0
37 31C4 0 CODE 0
38 31D0 0 CODE 0
39 31D8 0 CODE 0
52 31E0 0 CODE 0
53 31E8 0 CODE 0
ldc_01.c
74 320C 0 CODE 0
79 320C 0 CODE 0
96 3210 0 CODE 0
../../lib/src/pic18_lcd.c
48 2B9A 0 CODE 0
52 2B9C 0 CODE 0
54 2B9E 0 CODE 0
55 2BA4 0 CODE 0
56 2BAA 0 CODE 0
57 2BB0 0 CODE 0
59 2BB8 0 CODE 0
60 2BE0 0 CODE 0
61 2BE6 0 CODE 0
63 2BE8 0 CODE 0
64 2C0C 0 CODE 0
61 2C10 0 CODE 0
../../lib/src/pic18_lcd.c
90 236C 0 CODE 0
92 236E 0 CODE 0
93 2372 0 CODE 0
94 23B0 0 CODE 0
95 23EC 0 CODE 0
96 23F4 0 CODE 0
97 2400 0 CODE 0
98 2442 0 CODE 0
99 2470 0 CODE 0
100 2478 0 CODE 0
101 2484 0 CODE 0
102 249C 0 CODE 0
../../lib/src/pic18_lcd.c
5 26EC 0 CODE 0
8 26EC 0 CODE 0
9 26EE 0 CODE 0
10 26F0 0 CODE 0
11 26F2 0 CODE 0
12 26F4 0 CODE 0
13 26F6 0 CODE 0
14 26F8 0 CODE 0
15 26FA 0 CODE 0
16 26FC 0 CODE 0
17 26FE 0 CODE 0
18 2700 0 CODE 0
19 2702 0 CODE 0
20 2704 0 CODE 0
21 2714 0 CODE 0
22 2724 0 CODE 0
23 2734 0 CODE 0
24 2744 0 CODE 0
25 2754 0 CODE 0
27 2764 0 CODE 0
29 2768 0 CODE 0
30 2772 0 CODE 0
31 277C 0 CODE 0
32 2780 0 CODE 0
33 2788 0 CODE 0
34 2792 0 CODE 0
35 2794 0 CODE 0
36 27A4 0 CODE 0
37 27AC 0 CODE 0
38 27B8 0 CODE 0
39 27C4 0 CODE 0
40 27CC 0 CODE 0
41 27D8 0 CODE 0
42 27E8 0 CODE 0
43 27EE 0 CODE 0
44 27F4 0 CODE 0
45 27FA 0 CODE 0
46 2800 0 CODE 0
../../lib/src/pic18_lcd.c
104 249E 0 CODE 0
106 24A0 0 CODE 0
107 24A4 0 CODE 0
108 24E2 0 CODE 0
109 251E 0 CODE 0
110 2526 0 CODE 0
111 2532 0 CODE 0
112 2574 0 CODE 0
113 25A2 0 CODE 0
114 25AA 0 CODE 0
115 25B6 0 CODE 0
116 25C6 0 CODE 0
